{
    "networks":{
        "ropsten":  {
            "provider": "https://gropsten.infura.io",
            "defaultRoom": "0x855b28d40208575951e695fa0b6a6e16e175b9d9"
        },

        "rinkeby": {
            "provider": "https://rinkeby.infura.io",
            "etherscan": "https://rinkeby.etherscan.io/",
            "defaultRoom": "0x05E1bE98863e80bCdaCa1DBec8BC399540cA448C"
        },

        "mainnet": {
            "provider": "https://mainnet.infura.io",
            "etherscan": "https://etherscan.io/",
            "defaultRoom": "0x6B7d1D81A4A2dDC4Cf7A4b5DB641908FBa773c4d"
        }
    },
    "abi": [{"constant":true,"inputs":[{"name":"","type":"address"}],"name":"getPermissions","outputs":[{"name":"","type":"bytes32"}],"payable":false,"stateMutability":"view","type":"function"},{"constant":true,"inputs":[],"name":"metadata","outputs":[{"name":"","type":"string"}],"payable":false,"stateMutability":"view","type":"function"}]
}
